Total number of source flacs: 1027 (in 83 releases)
By tag (tracks can have multiple tags):
 - 1960s: 18 (1.75%)
 - 1970s: 23 (2.24%)
 - 1990s: 55 (5.36%)
 - 2000s: 58 (5.65%)
 - 2010s: 102 (9.93%)
 - abstract: 23 (2.24%)
 - acoustic: 20 (1.95%)
 - african: 24 (2.34%)
 - alternative: 63 (6.13%)
 - alternative.metal: 36 (3.51%)
 - alternative.rock: 86 (8.37%)
 - ambient: 50 (4.87%)
 - ambient.pop: 14 (1.36%)
 - americana: 26 (2.53%)
 - art.pop: 25 (2.43%)
 - avant.folk: 5 (0.49%)
 - ballad: 11 (1.07%)
 - baroque: 13 (1.27%)
 - baroque.pop: 11 (1.07%)
 - berber: 22 (2.14%)
 - blues: 25 (2.43%)
 - blues.rock: 13 (1.27%)
 - breakbeat: 22 (2.14%)
 - british: 21 (2.04%)
 - chamber.folk: 16 (1.56%)
 - chaotic.hardcore: 11 (1.07%)
 - chiptune: 33 (3.21%)
 - classic.rock: 10 (0.97%)
 - classical: 68 (6.62%)
 - contemporary: 13 (1.27%)
 - contemporary.jazz: 11 (1.07%)
 - country: 37 (3.60%)
 - dark.ambient: 4 (0.39%)
 - disco: 25 (2.43%)
 - downtempo: 11 (1.07%)
 - dream.pop: 12 (1.17%)
 - drill.and.bass: 30 (2.92%)
 - dubstep: 16 (1.56%)
 - easy.listening: 11 (1.07%)
 - electro: 40 (3.89%)
 - electronic: 336 (32.72%)
 - ethereal: 11 (1.07%)
 - experimental: 190 (18.50%)
 - experimental.rock: 7 (0.68%)
 - field.recording: 14 (1.36%)
 - film.soundtrack: 14 (1.36%)
 - folk: 158 (15.38%)
 - folk.rock: 65 (6.33%)
 - freak.folk: 16 (1.56%)
 - freestyle: 16 (1.56%)
 - french: 11 (1.07%)
 - funk: 34 (3.31%)
 - funk.metal: 18 (1.75%)
 - funktronica: 23 (2.24%)
 - fusion: 23 (2.24%)
 - future.bass: 17 (1.66%)
 - glitch.pop: 14 (1.36%)
 - grindcore: 23 (2.24%)
 - grunge: 13 (1.27%)
 - gypsy: 21 (2.04%)
 - hard.rock: 32 (3.12%)
 - harp: 5 (0.49%)
 - heavy.metal: 23 (2.24%)
 - hip.hop: 138 (13.44%)
 - historical: 28 (2.73%)
 - idm: 62 (6.04%)
 - indie: 157 (15.29%)
 - indie.folk: 29 (2.82%)
 - indie.pop: 11 (1.07%)
 - indie.rock: 59 (5.74%)
 - indietronica: 22 (2.14%)
 - industrial: 11 (1.07%)
 - japanese: 17 (1.66%)
 - jazz: 82 (7.98%)
 - jazz.world.music: 11 (1.07%)
 - jpop: 31 (3.02%)
 - klezmer: 18 (1.75%)
 - leftfield: 70 (6.82%)
 - lo.fi: 32 (3.12%)
 - macedonian: 21 (2.04%)
 - mathcore: 11 (1.07%)
 - metal: 22 (2.14%)
 - modern.classical: 15 (1.46%)
 - neo.psychedelia: 11 (1.07%)
 - neo.soul: 23 (2.24%)
 - neofolk: 8 (0.78%)
 - new.age: 13 (1.27%)
 - no.wave: 12 (1.17%)
 - noise: 17 (1.66%)
 - noise.rock: 12 (1.17%)
 - nu.metal: 11 (1.07%)
 - piano: 28 (2.73%)
 - pop: 118 (11.49%)
 - pop.rock: 13 (1.27%)
 - pop.soul: 11 (1.07%)
 - post.punk: 24 (2.34%)
 - post.rock: 38 (3.70%)
 - progressive.folk: 16 (1.56%)
 - progressive.rock: 30 (2.92%)
 - psychedelic: 24 (2.34%)
 - psychedelic.folk: 16 (1.56%)
 - psychedelic.pop: 11 (1.07%)
 - psychedelic.rock: 18 (1.75%)
 - psychedelic.soul: 23 (2.24%)
 - punk: 56 (5.45%)
 - rap.metal: 36 (3.51%)
 - rhythm.and.blues: 2 (0.19%)
 - riot.grrrl: 17 (1.66%)
 - rock: 355 (34.57%)
 - shoegaze: 28 (2.73%)
 - singer.songwriter: 16 (1.56%)
 - soul: 34 (3.31%)
 - space.rock: 26 (2.53%)
 - staff.recs: 40 (3.89%)
 - stage.and.screen: 31 (3.02%)
 - strings: 14 (1.36%)
 - synthpop: 13 (1.27%)
 - trip.hop: 22 (2.14%)
 - west.coast.hip.hop: 14 (1.36%)
 - world.music: 124 (12.07%)
By source:
 - CD: 901 (87.73%)
 - WEB: 126 (12.27%)
Contents:
 - Aphex Twin: Drukqs [1054101] | 30 tracks | experimental, electronic, idm, 2000s, drill.and.bass
 - Autechre: Draft 7.30 [951746] | 10 tracks | experimental, electronic, idm, leftfield, abstract
 - Beach House: Devotion [1508159] | 11 tracks | rock, pop, indie, indie.rock, dream.pop, shoegaze, ethereal, ballad
 - Beach House: Dive [1691378] | 1 tracks | dream.pop
 - Luzerner Sinfonieorchester, Oliver Schnyder: The Beethoven Project - The 5 Piano Concertos &amp; 4 Overtures [1477901] | 19 tracks | classical, chiptune
 - Beirut: The Flying Club Cup [1012316] | 13 tracks | pop, indie, folk, country, indie.folk, world.music, baroque
 - Björk: Utopia [1502377] | 14 tracks | pop, experimental, electronic, art.pop, field.recording, ambient.pop, glitch.pop
 - Bratmobile: Pottymouth [213364] | 17 tracks | rock, 1990s, riot.grrrl
 - Calexico: Feast of Wire [1130373] | 26 tracks | rock, alternative.rock, folk.rock, indie, folk, post.rock, americana
 - Alfred Cortot: &Eacute;tudes Op.10, &Eacute;tudes Op. 25, Barcarolle Op. 60 (1933-1949 Recordings) [972920] | 28 tracks | piano, classical, historical
 - Czarface, MF Doom: Nautical Depth [1652950] | 1 tracks | hip.hop
 - MF DOOM: Born Like This [957476] | 17 tracks | hip.hop, indie
 - David Byrne, St. Vincent: Love This Giant [986835] | 12 tracks | rock, indie, folk, indie.rock
 - Days of the New: Days of the New [935677] | 12 tracks | rock, heavy.metal, alternative.rock, blues
 - Deerhoof: Reveille [1072839] | 16 tracks | rock, space.rock, electronic, lo.fi, freestyle
 - Deftones: Adrenaline [11483] | 11 tracks | rock, hard.rock, heavy.metal, metal, nu.metal
 - Devendra Banhart: Rejoicing in the Hands [1594023] | 16 tracks | rock, folk.rock, lo.fi, 2000s, indie.folk, psychedelic.folk, freak.folk
 - Dirty Projectors: The Getty Address [931830] | 13 tracks | experimental, alternative, indie
 - Joanna Newsom: Divers [10328] | 11 tracks | folk, singer.songwriter, baroque.pop, progressive.folk, chamber.folk
 - Esma Redžepova, Nasko Džorlev Ensemble, Stevo Teodosievski Ensemble, Usnija Jašarova: Songs of a Macedonian Gypsy [348932] | 21 tracks | folk, world.music, gypsy, macedonian
 - Espers: Espers [893215] | 8 tracks | rock, psychedelic.rock, acoustic, neofolk
 - Goldfrapp: Head First [984781] | 9 tracks | pop, electronic
 - Graham Coxon: The End of the F***ing World (Original Songs and Score) [1626892] | 16 tracks | rock, folk, indie.rock, stage.and.screen
 - Hindi Zahra: Handmade [1507646] | 11 tracks | pop, soul, jazz, folk, country, world.music, berber
 - Hindi Zahra: Homeland [987225] | 11 tracks | pop.soul, jazz.world.music, berber
 - Iceage: Plowing Into the Field of Love [41645] | 12 tracks | rock, punk, post.punk
 - Iceage: New Brigade [147646] | 12 tracks | rock, punk, noise.rock, post.punk, no.wave
 - Cincinnati Pops Orchestra: Offenbach: Ga&icirc;t&eacute; Parisienne / Five Overtures (The Great Composers, Volume 40) [1494348] | 16 tracks | classical
 - Janelle Monáe: Django Jane [1672547] | 1 tracks | rhythm.and.blues
 - Janelle Monáe: Make Me Feel [1673190] | 1 tracks | pop, rhythm.and.blues
 - Jimi Hendrix: Both Sides of the Sky [1705709] | 13 tracks | rock, psychedelic, blues.rock, blues, 1970s, 1960s
 - Joanna Newsom: The Milk-Eyed Mender [1028790] | 12 tracks | rock, acoustic, folk.rock, folk, 2000s, post.rock, world.music
 - Joanna Newsom: Ys [959798] | 5 tracks | folk, singer.songwriter, harp, progressive.folk, chamber.folk, avant.folk
 - Jonny Greenwood: Bodysong [104970] | 13 tracks | experimental, electronic, idm, contemporary
 - Jonny Greenwood: You Were Never Really Here (Original Motion Picture Soundtrack) [1693001] | 14 tracks | experimental, electronic, strings
 - Kaitlyn Aurelia Smith: The Kid [1409572] | 13 tracks | experimental, electronic, ambient, abstract, new.age, 2010s
 - Berliner Philharmoniker: Beethoven: Symphony No. 9 [661759] | 5 tracks | classical, 1960s, staff.recs
 - Keren Ann: Not Going Anywhere [1782593] | 11 tracks | pop, jazz, easy.listening
 - Le Voila Voila: Chaud devant ! [1611441] | 11 tracks | folk, french
 - Leyya: Sauna [1710265] | 13 tracks | pop, experimental, electronic, indie, synthpop
 - M.I.A.: Piracy Funds Terrorism, Volume 1 [1574470] | 21 tracks | hip.hop, electronic, leftfield
 - M83: Dead Cities, Red Seas &amp; Lost Ghosts [985649] | 17 tracks | rock, electronic, electro, leftfield, noise, shoegaze
 - Mirah: Sundial [1405513] | 7 tracks | indie, folk
 - Mount Kimbie: Love What Survives [1342551] | 11 tracks | hip.hop, electronic, ambient, leftfield, breakbeat, indietronica, 2010s
 - Mount Kimbie: Love What Survives [1351532] | 11 tracks | hip.hop, electronic, ambient, leftfield, breakbeat, indietronica, 2010s
 - Mount Kimbie: Turtle Neck Man [1660745] | 1 tracks | electronic, alternative
 - Peaches: I Feel Cream [951562] | 14 tracks | electronic, electro, disco
 - Pink Floyd: The Dark Side of the Moon [1003684] | 10 tracks | rock, experimental, progressive.rock, psychedelic, psychedelic.rock, space.rock, classic.rock, hard.rock, 1970s, british, staff.recs
 - Portishead: Third [930088] | 11 tracks | rock, electronic, folk.rock, industrial, british, trip.hop, downtempo
 - Primus: The Desaturating Seven [1390496] | 7 tracks | rock, progressive.rock, alternative.rock, experimental.rock, funk.metal
 - Queens of the Stone Age: Villains [1317233] | 9 tracks | rock, hard.rock, alternative.rock, 2010s
 - Rage Against the Machine: Clear The Lane / Hadda Be Playing On The Jukebox [819638] | 2 tracks | rock, hard.rock, 1990s
 - Rage Against the Machine: Evil Empire [672873] | 11 tracks | rock, hip.hop, metal, funk, alternative.metal, funk.metal, rap.metal
 - Rage Against the Machine: Rage Against the Machine [971520] | 25 tracks | rock, hip.hop, alternative, 1990s, alternative.metal, rap.metal, staff.recs
 - Rufus Wainwright: Want Two [309652] | 13 tracks | rock, pop, pop.rock, indie
 - Shinya Fukumori Trio: For 2 Akis [1777370] | 11 tracks | jazz, contemporary.jazz
 - Silverchair: Freak Show [936572] | 13 tracks | rock, progressive.rock, alternative.rock, grunge
 - Sleater-Kinney: Live in Paris [804499] | 13 tracks | rock, alternative
 - Sleater-Kinney: The Woods [945550] | 10 tracks | rock, punk, indie
 - Sneaker Pimps: Becoming X [958346] | 11 tracks | electronic, 1990s, trip.hop
 - Son Lux: Brighter Wounds [1649953] | 10 tracks | electronic, alternative
 - Swearin': Surfing Strange [381350] | 11 tracks | punk, indie.rock
 - The Armed: Only Love [1758115] | 11 tracks | punk, mathcore, chaotic.hardcore
 - Thom Yorke: The Eraser [14970] | 9 tracks | rock, experimental, electronic, alternative.rock, indie.rock, electro, idm
 - Thomas Carbou: Directions [1778878] | 12 tracks | experimental, jazz, world.music
 - Thundercat: Drunk [904781] | 23 tracks | soul, electronic, jazz, funk, fusion, neo.soul, psychedelic.soul, funktronica
 - U.S. Girls: In a Poem Unlimited [1633909] | 11 tracks | pop, indie, indie.pop, art.pop, disco, psychedelic.pop, neo.psychedelia, 2010s
 - Ugagn: Vengjeslag [1733597] | 13 tracks | folk, country, world.music
 - Andy Statman, Brave Old World, Budowitz, Chava Alberstein (חוה אלברשטיין), Di Naye Kapelye, Frank London's Klezmer Brass Allstars, German Goldenshteyn, Giora Feidman, Hot Pstromi, Joel Rubin Jewish Music Ensemble, Kharkov Klezmer Band, Klassj, Konsonans Retro, Merlin Shepherd Kapelye, Sid Beckerman & Howie Leess, Steven Greenman, The Klezmatics, The Klezmer Conservatory Band, The Zmiros Project, Veretski Pass, Yale Strom: The Rough Guide to Klezmer Revival [456076] | 18 tracks | world.music, klezmer
 - Mulatu Astatqé: &Eacute;thiopiques 4 Ethio Jazz &amp; Musique Instrumentale 1969-1974 [1436643] | 14 tracks | jazz, world.music, african
 - Valerie Ekoumè: Kwin Na Kingu&egrave; [1702854] | 10 tracks | pop, world.music, african
 - Vania De Bie-Vernet: Gelderlaand [1742559] | 10 tracks | experimental, electronic
 - Wendy Carlos: Stanley Kubrick&#39;s A Clockwork Orange (Music from the Soundtrack) [679515] | 15 tracks | experimental, electronic, ambient, modern.classical, stage.and.screen
 - Avans, Blacklolita ‎ ‎ ‎, Casual Killer, dubscribe, Irish Kappa, izna, Jerico, Katali, Maozon vs Primal Beast, MYTK, Nhato, NOFT_Scarlet, Saiph & Nardis, Spright5, Tanchiky, Zekk: AD:DUBSTEP 2 [1314767] | 16 tracks | electronic, dubstep, 2010s
 - 2 Chainz, Ab-Soul, Anderson .Paak, Babes Wodumo, Future, James Blake, Jay Rock, Jorja Smith, Kendrick Lamar, Khalid, Mozzy, Reason, Saudi, ScHoolboy Q, Sjava, SOB X RBE, Swae Lee, SZA, The Weeknd, Travis Scott, Vince Staples, Yugen Blakrok, Zacari: Black Panther The Album [1651423] | 14 tracks | hip.hop, film.soundtrack, 2010s, west.coast.hip.hop
 - Brud, Japanische Kampfhörspiele, Meat Cutting Floor, Nervous Impulse: Grind Cuts [1685469] | 23 tracks | grindcore
 - Xiu Xiu: Fabulous Muscles [995888] | 10 tracks | rock, experimental, electronic, alternative.rock, indie
 - YMCK: Family Genesis [296896] | 14 tracks | electronic, chiptune, jpop
 - Yunomi (ゆのみ): Yunomokyu [1569664] | 17 tracks | japanese, jpop, future.bass, 2010s
 - cupcakKe: Ephorize [1590084] | 15 tracks | hip.hop
 - cupcakKe: Queen Elizabitch [1056802] | 12 tracks | hip.hop
 - of Montreal: Paranoiac Intervals/Body Dysmorphia [1612047] | 1 tracks | rock, pop, psychedelic, alternative, indie
 - Rainforest Spiritual Enslavement: Red Ants Genesis [1782099] | 4 tracks | experimental, dark.ambient
